…
    ## `summarise()` ungrouping output (override with `.groups` argument)

``` r
california
```

    ## # A tibble: 34 x 4
    ##    msaname15                           mean_inc deviation region                
    ##    <chr>                                  <dbl>     <dbl> <chr>                 
    ##  1 Bakersfield, CA Metro Area            53213.    -7611. Bakersfield           
    ##  2 Chico, CA Metro Area                  47784.   -13040. Chico                 
    ##  3 Clearlake, CA Micro Area              40738.   -20086. Clearlake             
    ##  4 Crescent City, CA Micro Area          41261.   -19563. Crescent City         
    ##  5 El Centro, CA Metro Area              46279.   -14545. El Centro             
    ##  6 Eureka-Arcata-Fortuna, CA Micro Ar…   44584.   -16240. Eureka-Arcata-Fortuna 
    ##  7 Fresno, CA Metro Area                 52661.    -8163. Fresno                
    ##  8 Hanford-Corcoran, CA Metro Area       52070.    -8754. Hanford-Corcoran      
    ##  9 Los Angeles-Long Beach-Anaheim, CA…   69815.     8991. Los Angeles-Long Beac…
    ## 10 Madera, CA Metro Area                 50517.   -10307. Madera                
    ## # … with 24 more rows
…
CA <- data1%>%
  filter(stateusps =="CA")%>% #looking at only CA
  group_by(msaname15)%>%  #group by cities/counties in CA
  summarise(avg_AP= mean(ED_APENR), avg_single = mean(SE_SINGLE))%>% #column called "avg_AP" that is avg % of students in AP
                                                                  #column called "avg_single" that is average % of single headed households
  arrange(desc(avg_AP))
```

    ## `summarise()` ungrouping output (override with `.groups` argument)

``` r
CA 
```

    ## # A tibble: 35 x 3
    ##    msaname15                                                avg_AP avg_single
    ##    <chr>                                                     <dbl>      <dbl>
    ##  1 Oxnard-Thousand Oaks-Ventura, CA Metro Area               0.544       27.7
    ##  2 San Jose-Sunnyvale-Santa Clara, CA Metro Area             0.516       23.2
    ##  3 San Diego-Carlsbad, CA Metro Area                         0.501       31.1
    ##  4 San Luis Obispo-Paso Robles-Arroyo Grande, CA Metro Area  0.445       28.8
    ##  5 Los Angeles-Long Beach-Anaheim, CA Metro Area             0.444       33.4
    ##  6 San Francisco-Oakland-Hayward, CA Metro Area              0.442       27.8
    ##  7 Napa, CA Metro Area                                       0.398       25.2
    ##  8 Salinas, CA Metro Area                                    0.365       32.4
    ##  9 Santa Maria-Santa Barbara, CA Metro Area                  0.363       31.0
    ## 10 Santa Cruz-Watsonville, CA Metro Area                     0.362       28.9
    ## # … with 25 more rows
…
LA <- data1%>%
  filter(msaname15 =="Los Angeles-Long Beach-Anaheim, CA Metro Area")%>% #looking at only LA
  group_by(geoid)%>%  #group by cities/counties in CA
  summarise(avg_AP= mean(ED_APENR), avg_single = mean(SE_SINGLE))%>% #column called "avg_AP" that is avg % of students in AP
                                                                  #column called "avg_single" that is average % of single headed households
  arrange(desc(avg_AP))
```

    ## `summarise()` ungrouping output (override with `.groups` argument)

``` r
LA 
```

    ## # A tibble: 2,891 x 3
    ##    geoid       avg_AP avg_single
    ##    <chr>        <dbl>      <dbl>
    ##  1 06037554518  1.16        16.1
    ##  2 06037554511  1.11        13.0
    ##  3 06037554517  1.07        22.3
    ##  4 06037554512  1.01        10.7
    ##  5 06037300600  0.955       22.7
    ##  6 06037300501  0.952       24.2
    ##  7 06037300502  0.950       34.7
    ##  8 06037300200  0.947       19.5
    ##  9 06037300100  0.944       11.4
    ## 10 06037300400  0.941       20.2
    ## # … with 2,881 more rows

``` r
#compare 'CA' with % of AP enrolled after u take out cities that have % of singleheaded household >30
LA_less_single <- LA%>%
  filter(avg_single<15)%>%
  arrange(desc(avg_single))
LA_less_single
```

    ## # A tibble: 302 x 3
    ##    geoid       avg_AP avg_single
    ##    <chr>        <dbl>      <dbl>
    ##  1 06037920338 0.616        15.0
    ##  2 06059086305 0.259        15.0
    ##  3 06059042317 0.603        15.0
    ##  4 06037139600 0.406        14.9
    ##  5 06037603703 0.661        14.9
    ##  6 06059110301 0.524        14.9
    ##  7 06037271300 0.432        14.9
    ##  8 06059063009 0.501        14.9
    ##  9 06037137302 0.325        14.9
    ## 10 06037207900 0.0556       14.8
    ## # … with 292 more rows
…
    ## `summarise()` ungrouping output (override with `.groups` argument)

``` r
surround_LA 
```

    ## # A tibble: 1,432 x 3
    ##    geoid       avg_AP avg_single
    ##    <chr>        <dbl>      <dbl>
    ##  1 06073021500   1.34       9.60
    ##  2 06073017200   1.29      21.8 
    ##  3 06073017306   1.26       3.89
    ##  4 06073017304   1.17      40.3 
    ##  5 06073017305   1.12       7.03
    ##  6 06073017106   1.12      27.9 
    ##  7 06073017303   1.10      27.3 
    ##  8 06073017029   1.04      16.4 
    ##  9 06073008329   1.02      47.0 
    ## 10 06073008331   1.02      20.1 
    ## # … with 1,422 more rows

``` r
#compare 'CA' with % of AP enrolled after u take out cities that have % of singleheaded household >30
subLA_less_single <- surround_LA%>%
  filter(avg_single<15)%>%
  arrange(desc(avg_single))
subLA_less_single
```

    ## # A tibble: 174 x 3
    ##    geoid       avg_AP avg_single
    ##    <chr>        <dbl>      <dbl>
    ##  1 06073014602 0.507        15.0
    ##  2 06065050300 0.493        15.0
    ##  3 06065040806 0.0535       14.9
    ##  4 06073003105 0.414        14.9
    ##  5 06071007903 0.342        14.9
    ##  6 06073020021 0.521        14.7
    ##  7 06071009119 0.221        14.7
    ##  8 06073020024 0.675        14.7
    ##  9 06065042724 0.596        14.6
    ## 10 06065043256 0.732        14.6
    ## # … with 164 more rows
…
