…
``` r
NYC <- data %>%
  filter(stateusps == "NY")%>%
  group_by(msaname15)%>%
  summarise(count=n())%>%
  arrange(desc(count))
```

    ## `summarise()` ungrouping output (override with `.groups` argument)

``` r
NYC
```

    ## # A tibble: 27 x 2
    ##    msaname15                                        count
    ##    <chr>                                            <int>
    ##  1 New York-Newark-Jersey City, NY-NJ-PA Metro Area  6478
    ##  2 Buffalo-Cheektowaga-Niagara Falls, NY Metro Area   598
    ##  3 Rochester, NY Metro Area                           544
    ##  4 Albany-Schenectady-Troy, NY Metro Area             436
    ##  5 Syracuse, NY Metro Area                            372
    ##  6 <NA>                                               236
    ##  7 Utica-Rome, NY Metro Area                          186
    ##  8 Binghamton, NY Metro Area                          130
    ##  9 Kingston, NY Metro Area                             94
    ## 10 Glens Falls, NY Metro Area                          72
    ## # … with 17 more rows
…
``` r
TX <- data %>%
  filter(stateusps == "TX")%>%
  group_by(msaname15)%>%
  summarise(count=n())%>%
  arrange(desc(count))
```

    ## `summarise()` ungrouping output (override with `.groups` argument)

``` r
TX
```

    ## # A tibble: 70 x 2
    ##    msaname15                                       count
    ##    <chr>                                           <int>
    ##  1 Dallas-Fort Worth-Arlington, TX Metro Area       2648
    ##  2 Houston-The Woodlands-Sugar Land, TX Metro Area  2144
    ##  3 San Antonio-New Braunfels, TX Metro Area          914
    ##  4 <NA>                                              762
    ##  5 Austin-Round Rock, TX Metro Area                  700
    ##  6 El Paso, TX Metro Area                            324
    ##  7 McAllen-Edinburg-Mission, TX Metro Area           226
    ##  8 Beaumont-Port Arthur, TX Metro Area               218
    ##  9 Corpus Christi, TX Metro Area                     208
    ## 10 Killeen-Temple, TX Metro Area                     178
    ## # … with 60 more rows
…
``` r
PA <- data %>%
  filter(stateusps == "PA")%>%
  group_by(msaname15)%>%
  summarise(count=n())%>%
  arrange(desc(count))
```

    ## `summarise()` ungrouping output (override with `.groups` argument)

``` r
PA
```

    ## # A tibble: 38 x 2
    ##    msaname15                                              count
    ##    <chr>                                                  <int>
    ##  1 Philadelphia-Camden-Wilmington, PA-NJ-DE-MD Metro Area  1996
    ##  2 Pittsburgh, PA Metro Area                               1422
    ##  3 Scranton--Wilkes-Barre--Hazleton, PA Metro Area          340
    ##  4 Allentown-Bethlehem-Easton, PA-NJ Metro Area             312
    ##  5 Harrisburg-Carlisle, PA Metro Area                       248
    ##  6 Lancaster, PA Metro Area                                 196
    ##  7 <NA>                                                     196
    ##  8 Reading, PA Metro Area                                   180
    ##  9 York-Hanover, PA Metro Area                              180
    ## 10 Erie, PA Metro Area                                      144
    ## # … with 28 more rows
…
